5
13 18
-1 0
2 12
3 16
4 16
5 12
6 12
7 12
6 12
5 12
4 12
3 12
2 12
-1 10

10 20
-1 0
2 20
4 10
6 15
7 20
6 12
4 10
2 17
0 11
-1 10

10 14
-1 0
4 6
2 6
6 6
4 6
6 6
2 6
1 6
7 6
-1 12

13 26
-1 0
1 10
6 10
6 5
1 10
1 5
6 10
6 5
1 10
1 5
6 10
4 10
-1 60

14 23
-1 0
4 5
4 10
1 10
6 10
0 15
7 15
4 10
4 5
2 5
2 5
4 5
4 5
-1 10